%YAML 1.1
%TAG !u! tag:unity3d.com,2011:
--- !u!1045 &1
EditorBuildSettings:
  m_ObjectHideFlags: 0
  serializedVersion: 2
  m_Scenes:
  - enabled: 0
    path: Assets/Template/Scenes/JUMP.unity
    guid: 8d5d3ee80882d9c45b896e52bfe553a1
  - enabled: 1
    path: Assets/Template/Scenes/Tutorial Level.unity
    guid: 9f1b45ec9ff8c1b44ba6e7dd07fce609
  m_configObjects: {}
