%YAML 1.1
%TAG !u! tag:unity3d.com,2011:
--- !u!114 &11400000
MonoBehaviour:
  m_ObjectHideFlags: 0
  m_CorrespondingSourceObject: {fileID: 0}
  m_PrefabInstance: {fileID: 0}
  m_PrefabAsset: {fileID: 0}
  m_GameObject: {fileID: 0}
  m_Enabled: 1
  m_EditorHideFlags: 0
  m_Script: {fileID: 11500000, guid: ae979fabfb40cfc4f869d50fcc83f774, type: 3}
  m_Name: ForestAutoTileRule
  m_EditorClassIdentifier: 
  TileMap: {fileID: 2800000, guid: 7b8c6d670d3c75448ba2637236e3344e, type: 3}
  RuleTileTemplate: {fileID: 11400000, guid: c42fbf01ce45f5a4f9c04fdfbcb3198e, type: 2}
